\relax 
\providecommand\hyper@newdestlabel[2]{}
\citation{kopack2003sams}
\citation{soap}
\@writefile{toc}{\contentsline {chapter}{\numberline {2}Servi\IeC {\c c}os Web}{5}{chapter.2}}
\@writefile{lof}{\addvspace {10\p@ }}
\@writefile{lot}{\addvspace {10\p@ }}
\newlabel{cap:servicosWeb}{{2}{5}{Serviços Web}{chapter.2}{}}
\undonewlabel{acro:XML}
\newlabel{acro:XML}{{2}{5}{Serviços Web}{section*.9}{}}
\acronymused{XML}
\undonewlabel{acro:REST}
\newlabel{acro:REST}{{2}{5}{Serviços Web}{section*.10}{}}
\acronymused{REST}
\@writefile{toc}{\contentsline {section}{\numberline {2.1}Tipos de Servi\IeC {\c c}os Web}{5}{section.2.1}}
\newlabel{sec:tiposServicos}{{2.1}{5}{Tipos de Serviços Web}{section.2.1}{}}
\undonewlabel{acro:SOAP}
\newlabel{acro:SOAP}{{2.1}{5}{Tipos de Serviços Web}{section*.11}{}}
\acronymused{SOAP}
\acronymused{WSDL}
\acronymused{REST}
\acronymused{SOAP}
\acronymused{XML}
\citation{Fielding:2000:ASD:932295}
\citation{bigolinrest}
\citation{bigolinrest}
\acronymused{SOAP}
\acronymused{REST}
\acronymused{REST}
\acronymused{HTTP}
\acronymused{REST}
\acronymused{HTTP}
\@writefile{lot}{\contentsline {table}{\numberline {2.1}{\ignorespaces Compara\IeC {\c c}\IeC {\~a}o das arquiteturas WS-* e REST \cite  {bigolinrest}}}{6}{table.2.1}}
\newlabel{table:restvcsoap}{{2.1}{6}{Comparação das arquiteturas WS-* e REST \cite {bigolinrest}}{table.2.1}{}}
\@writefile{toc}{\contentsline {section}{\numberline {2.2}Servi\IeC {\c c}os Web Sem\IeC {\^a}nticos}{6}{section.2.2}}
\newlabel{sec:servicossemanticos}{{2.2}{6}{Serviços Web Semânticos}{section.2.2}{}}
\acronymused{WSDL}
\citation{berners2001semantic}
\citation{horridge2004practical}
\citation{horridge2004practical}
\@writefile{toc}{\contentsline {subsection}{\numberline {2.2.1}Ontologias}{7}{subsection.2.2.1}}
\undonewlabel{acro:OWL}
\newlabel{acro:OWL}{{2.2.1}{7}{Ontologias}{section*.12}{}}
\acronymused{OWL}
\acronymused{OWL}
\undonewlabel{acro:UNA}
\newlabel{acro:UNA}{{2.2.1}{7}{Ontologias}{section*.13}{}}
\acronymused{UNA}
\citation{horridge2004practical}
\citation{horridge2004practical}
\citation{horridge2004practical}
\citation{horridge2004practical}
\citation{Prazeres:2009:SWS:1529282.1529421}
\@writefile{lof}{\contentsline {figure}{\numberline {2.1}{\ignorespaces Representa\IeC {\c c}\IeC {\~a}o das propriedades \citep  {horridge2004practical}}}{8}{figure.2.1}}
\newlabel{fig:propriedade_owl}{{2.1}{8}{Representação das propriedades \citep {horridge2004practical}}{figure.2.1}{}}
\@writefile{lof}{\contentsline {figure}{\numberline {2.2}{\ignorespaces Exemplo de propriedade Inversa \citep  {horridge2004practical}}}{8}{figure.2.2}}
\newlabel{fig:propriedade_inversa_owl}{{2.2}{8}{Exemplo de propriedade Inversa \citep {horridge2004practical}}{figure.2.2}{}}
\undonewlabel{acro:OWL-S}
\newlabel{acro:OWL-S}{{2.2.1}{8}{Ontologias}{section*.14}{}}
\acronymused{OWL-S}
\acronymused{OWL}
\citation{owls}
\citation{owls}
\@writefile{lof}{\contentsline {figure}{\numberline {2.3}{\ignorespaces Representa\IeC {\c c}\IeC {\~a}o das Classes (Contendo Indiv\IeC {\'\i }duos) \citep  {horridge2004practical}}}{9}{figure.2.3}}
\newlabel{fig:classe_owl}{{2.3}{9}{Representação das Classes (Contendo Indivíduos) \citep {horridge2004practical}}{figure.2.3}{}}
\acronymused{OWL-S}
\acronymused{OWL-S}
\@writefile{lof}{\contentsline {figure}{\numberline {2.4}{\ignorespaces N\IeC {\'\i }vel superior das classes do OWL-S \citep  {owls}}}{10}{figure.2.4}}
\newlabel{fig:service_ontology}{{2.4}{10}{Nível superior das classes do OWL-S \citep {owls}}{figure.2.4}{}}
\newlabel{cod:owls}{{2.1}{10}{Exemplo de serviço descrito em OWL-S}{lstlisting.2.1}{}}
\@writefile{lol}{\contentsline {lstlisting}{\numberline {2.1}Exemplo de servi\IeC {\c c}o descrito em OWL-S}{10}{lstlisting.2.1}}
\@setckpt{chapters/web_services/main}{
\setcounter{page}{11}
\setcounter{equation}{0}
\setcounter{enumi}{0}
\setcounter{enumii}{0}
\setcounter{enumiii}{0}
\setcounter{enumiv}{0}
\setcounter{footnote}{0}
\setcounter{mpfootnote}{0}
\setcounter{part}{0}
\setcounter{chapter}{2}
\setcounter{section}{2}
\setcounter{subsection}{1}
\setcounter{subsubsection}{0}
\setcounter{paragraph}{0}
\setcounter{subparagraph}{0}
\setcounter{figure}{4}
\setcounter{table}{1}
\setcounter{parentequation}{0}
\setcounter{@pps}{0}
\setcounter{@ppsavesec}{0}
\setcounter{@ppsaveapp}{0}
\setcounter{lstnumber}{22}
\setcounter{Def}{0}
\setcounter{Axi}{0}
\setcounter{Conj}{0}
\setcounter{Lem}{0}
\setcounter{Theo}{0}
\setcounter{Prop}{0}
\setcounter{Cor}{0}
\setcounter{NAT@ctr}{0}
\setcounter{Item}{0}
\setcounter{Hfootnote}{0}
\setcounter{bookmark@seq@number}{8}
\setcounter{lstlisting}{1}
\setcounter{section@level}{0}
}
