\relax 
\providecommand\hyper@newdestlabel[2]{}
\citation{newcomer2002}
\citation{newcomer2002}
\citation{newcomer2002}
\citation{sangers2013semantic}
\@writefile{toc}{\contentsline {chapter}{\numberline {1}Introdu\IeC {\c c}\IeC {\~a}o}{1}{chapter.1}}
\@writefile{lof}{\addvspace {10\p@ }}
\@writefile{lot}{\addvspace {10\p@ }}
\newlabel{cap:introducao}{{1}{1}{Introdução}{chapter.1}{}}
\undonewlabel{acro:HTTP}
\newlabel{acro:HTTP}{{1}{1}{Introdução}{section*.7}{}}
\acronymused{HTTP}
\citation{sangers2013semantic}
\undonewlabel{acro:WSDL}
\newlabel{acro:WSDL}{{1}{2}{Introdução}{section*.8}{}}
\acronymused{WSDL}
\acronymused{WSDL}
\acronymused{WSDL}
\@setckpt{chapters/introduction/main}{
\setcounter{page}{4}
\setcounter{equation}{0}
\setcounter{enumi}{0}
\setcounter{enumii}{0}
\setcounter{enumiii}{0}
\setcounter{enumiv}{0}
\setcounter{footnote}{0}
\setcounter{mpfootnote}{0}
\setcounter{part}{0}
\setcounter{chapter}{1}
\setcounter{section}{0}
\setcounter{subsection}{0}
\setcounter{subsubsection}{0}
\setcounter{paragraph}{0}
\setcounter{subparagraph}{0}
\setcounter{figure}{0}
\setcounter{table}{0}
\setcounter{parentequation}{0}
\setcounter{@pps}{0}
\setcounter{@ppsavesec}{0}
\setcounter{@ppsaveapp}{0}
\setcounter{lstnumber}{1}
\setcounter{Def}{0}
\setcounter{Axi}{0}
\setcounter{Conj}{0}
\setcounter{Lem}{0}
\setcounter{Theo}{0}
\setcounter{Prop}{0}
\setcounter{Cor}{0}
\setcounter{NAT@ctr}{0}
\setcounter{Item}{0}
\setcounter{Hfootnote}{0}
\setcounter{bookmark@seq@number}{4}
\setcounter{lstlisting}{0}
\setcounter{section@level}{0}
}
