\relax 
\providecommand\hyper@newdestlabel[2]{}
\catcode`"\active
\providecommand\HyperFirstAtBeginDocument{\AtBeginDocument}
\HyperFirstAtBeginDocument{\ifx\hyper@anchor\@undefined
\global\let\oldcontentsline\contentsline
\gdef\contentsline#1#2#3#4{\oldcontentsline{#1}{#2}{#3}}
\global\let\oldnewlabel\newlabel
\gdef\newlabel#1#2{\newlabelxx{#1}#2}
\gdef\newlabelxx#1#2#3#4#5#6{\oldnewlabel{#1}{{#2}{#3}}}
\AtEndDocument{\ifx\hyper@anchor\@undefined
\let\contentsline\oldcontentsline
\let\newlabel\oldnewlabel
\fi}
\fi}
\global\let\hyper@last\relax 
\gdef\HyperFirstAtBeginDocument#1{#1}
\providecommand\HyField@AuxAddToFields[1]{}
\providecommand\HyField@AuxAddToCoFields[2]{}
\reset@newl@bel
\select@language{brazil}
\@writefile{toc}{\select@language{brazil}}
\@writefile{lof}{\select@language{brazil}}
\@writefile{lot}{\select@language{brazil}}
\citation{horridge2004practical}
\citation{horridge2004practical}
\citation{horridge2004practical}
\citation{owls}
\citation{Voorhees:1993:UWD:160688.160715}
\@writefile{toc}{\contentsline {chapter}{Lista de Figuras}{xv}{chapter*.4}}
\citation{bigolinrest}
\@writefile{toc}{\contentsline {chapter}{Lista de Tabelas}{xvii}{chapter*.5}}
\@writefile{toc}{\contentsline {chapter}{Lista de Acr\IeC {\^o}nimos}{xix}{chapter*.6}}
\newacro{HTTP}[\AC@hyperlink{HTTP}{HTTP}]{ Hypertext Transfer Protocol }
\newacro{CORBA}[\AC@hyperlink{CORBA}{CORBA}]{ Common Object Request Broker Architecture }
\newacro{WSDL}[\AC@hyperlink{WSDL}{WSDL}]{ Web Services Description Language }
\newacro{SOAP}[\AC@hyperlink{SOAP}{SOAP}]{ Simple Object Access Protocol }
\newacro{XML}[\AC@hyperlink{XML}{XML}]{ Extensible Markup Language }
\newacro{REST}[\AC@hyperlink{REST}{REST}]{ Representational State Transfer }
\newacro{OWL}[\AC@hyperlink{OWL}{OWL}]{ Ontology Web Language }
\newacro{OWL-S}[\AC@hyperlink{OWL-S}{OWL-S}]{ Ontology Web Language for Services }
\newacro{PLN}[\AC@hyperlink{PLN}{PLN}]{ Processamento de Linguagem Natural }
\newacro{UNA}[\AC@hyperlink{UNA}{UNA}]{ Unique Name Assumption }
\newacro{JAWS}[\AC@hyperlink{JAWS}{JAWS}]{ Java API for WordNet Searching }
\newacro{WSMO}[\AC@hyperlink{WSMO}{WSMO}]{Web Service Modeling Ontology}
\newacro{RDF}[\AC@hyperlink{RDF}{RDF}]{Resource Description Framework}
\@input{chapters/introduction/main.aux}
\@input{chapters/web_services/main.aux}
\@input{chapters/pln/main.aux}
\@input{chapters/trabalhos_relacionados/main.aux}
\@input{chapters/proposta/main.aux}
\@input{chapters/avaliacao/main.aux}
\@input{chapters/conclusao/main.aux}
\bibstyle{natbib}
\bibdata{references}
\bibcite{Allen:2003:NLP:1074100.1074630}{{1}{2003}{{Allen}}{{Allen}}}
\bibcite{monografiaBatore}{{2}{2009}{{Amorim}}{{Amorim}}}
\bibcite{berners2001semantic}{{3}{2001}{{Berners-Lee {\em  et~al.}}}{{Berners-Lee, Hendler, Lassila, {\em  et~al.}}}}
\bibcite{bigolinrest}{{4}{2012}{{Bigolin}}{{Bigolin}}}
\bibcite{Fielding:2000:ASD:932295}{{5}{2000}{{Fielding}}{{Fielding}}}
\bibcite{horridge2004practical}{{6}{2004}{{Horridge {\em  et~al.}}}{{Horridge, Knublauch, Rector, Stevens, e Wroe}}}
\bibcite{Ide:1998:ISI:972719.972721}{{7}{1998}{{Ide e V{\'e}ronis}}{{Ide e V{\'e}ronis}}}
\bibcite{kopack2003sams}{{8}{2003}{{Kopack e Potts}}{{Kopack e Potts}}}
\bibcite{lesk1986automatic}{{9}{1986}{{Lesk}}{{Lesk}}}
\bibcite{newcomer2002}{{10}{2002}{{Newcomer}}{{Newcomer}}}
\bibcite{Prazeres:2009:SWS:1529282.1529421}{{11}{2009}{{Prazeres {\em  et~al.}}}{{Prazeres, Teixeira, Munson, e da~Gra\c {c}a C.~Pimentel}}}
\bibcite{sangers2013semantic}{{12}{2013}{{Sangers {\em  et~al.}}}{{Sangers, Frasincar, Hogenboom, e Chepegin}}}
\bibcite{specia2004desambiguaccao}{{13}{2004}{{Specia e Nunes}}{{Specia e Nunes}}}
\@writefile{toc}{\contentsline {chapter}{Refer\IeC {\^e}ncias Bibliogr\IeC {\'a}ficas}{37}{chapter.7}}
\bibcite{monografiaPLN}{{14}{2005}{{Vinhaes}}{{Vinhaes}}}
\bibcite{Voorhees:1993:UWD:160688.160715}{{15}{1993}{{Voorhees}}{{Voorhees}}}
\bibcite{soap}{{16}{2000}{{W3C}}{{W3C}}}
\bibcite{owls}{{17}{2004}{{W3C}}{{W3C}}}
\@writefile{toc}{\contentsline {chapter}{Ap\IeC {\^e}ndice}{39}{section*.20}}
\@input{appendix/experiment-instruments.aux}
