\BOOKMARK [0][-]{chapter*.4}{Lista de Figuras}{}% 1
\BOOKMARK [0][-]{chapter*.5}{Lista de Tabelas}{}% 2
\BOOKMARK [0][-]{chapter*.6}{Lista de Acr\364nimos}{}% 3
\BOOKMARK [0][-]{chapter.1}{Introdu\347\343o}{}% 4
\BOOKMARK [0][-]{chapter.2}{Servi\347os Web}{}% 5
\BOOKMARK [1][-]{section.2.1}{Tipos de Servi\347os Web}{chapter.2}% 6
\BOOKMARK [1][-]{section.2.2}{Servi\347os Web Sem\342nticos}{chapter.2}% 7
\BOOKMARK [2][-]{subsection.2.2.1}{Ontologias}{section.2.2}% 8
\BOOKMARK [0][-]{chapter.3}{Processamento de linguagem natural}{}% 9
\BOOKMARK [1][-]{section.3.1}{Desambigua\347\343o sem\342ntica}{chapter.3}% 10
\BOOKMARK [2][-]{subsection.3.1.1}{Algoritmo de Lesk}{section.3.1}% 11
\BOOKMARK [2][-]{subsection.3.1.2}{WordNet}{section.3.1}% 12
\BOOKMARK [1][-]{section.3.2}{Medidas de similaridade}{chapter.3}% 13
\BOOKMARK [0][-]{chapter.4}{Trabalhos relacionados}{}% 14
\BOOKMARK [0][-]{chapter.5}{Descoberta de Servi\347os Web via Linguagem Natural}{}% 15
\BOOKMARK [1][-]{section.5.1}{Arquitetura}{chapter.5}% 16
\BOOKMARK [1][-]{section.5.2}{Ferramentas utilizadas}{chapter.5}% 17
\BOOKMARK [1][-]{section.5.3}{Implementa\347\343o}{chapter.5}% 18
\BOOKMARK [2][-]{subsection.5.3.1}{Semantic Reader}{section.5.3}% 19
\BOOKMARK [2][-]{subsection.5.3.2}{Disambiguator}{section.5.3}% 20
\BOOKMARK [2][-]{subsection.5.3.3}{Matching}{section.5.3}% 21
\BOOKMARK [2][-]{subsection.5.3.4}{Web Service Discovery}{section.5.3}% 22
\BOOKMARK [1][-]{section.5.4}{Interface}{chapter.5}% 23
\BOOKMARK [1][-]{section.5.5}{Execu\347\343o}{chapter.5}% 24
\BOOKMARK [0][-]{chapter.6}{Avalia\347\343o}{}% 25
\BOOKMARK [1][-]{section.6.1}{Performance com e sem pr\351-processamento}{chapter.6}% 26
\BOOKMARK [1][-]{section.6.2}{Avalia\347\343o de usu\341rios}{chapter.6}% 27
\BOOKMARK [0][-]{chapter.7}{Conclus\343o}{}% 28
\BOOKMARK [0][-]{chapter.7}{Refer\352ncias Bibliogr\341ficas}{}% 29
\BOOKMARK [0][-]{section*.20}{Ap\352ndice}{}% 30
\BOOKMARK [0][-]{appendix.A}{Formul\341rio}{}% 31
\BOOKMARK [1][-]{section.A.1}{Formul\341rio para o usu\341rio do NLP Discovery}{appendix.A}% 32
