\relax 
\providecommand\hyper@newdestlabel[2]{}
\citation{monografiaPLN}
\citation{monografiaPLN}
\citation{Allen:2003:NLP:1074100.1074630}
\@writefile{toc}{\contentsline {chapter}{\numberline {3}Processamento de linguagem natural}{11}{chapter.3}}
\@writefile{lof}{\addvspace {10\p@ }}
\@writefile{lot}{\addvspace {10\p@ }}
\newlabel{cap:proclingnatural}{{3}{11}{Processamento de linguagem natural}{chapter.3}{}}
\undonewlabel{acro:PLN}
\newlabel{acro:PLN}{{3}{11}{Processamento de linguagem natural}{section*.15}{}}
\acronymused{PLN}
\acronymused{PLN}
\acronymused{PLN}
\citation{Allen:2003:NLP:1074100.1074630}
\citation{Ide:1998:ISI:972719.972721}
\citation{lesk1986automatic}
\citation{specia2004desambiguaccao}
\acronymused{PLN}
\@writefile{toc}{\contentsline {section}{\numberline {3.1}Desambigua\IeC {\c c}\IeC {\~a}o sem\IeC {\^a}ntica}{12}{section.3.1}}
\newlabel{sec:desabiguacaoSemantica}{{3.1}{12}{Desambiguação semântica}{section.3.1}{}}
\acronymused{PLN}
\citation{Ide:1998:ISI:972719.972721}
\citation{specia2004desambiguaccao}
\@writefile{toc}{\contentsline {subsection}{\numberline {3.1.1}Algoritmo de Lesk}{13}{subsection.3.1.1}}
\newlabel{sec:algoritmoLesk}{{3.1.1}{13}{Algoritmo de Lesk}{subsection.3.1.1}{}}
\@writefile{toc}{\contentsline {subsection}{\numberline {3.1.2}WordNet}{13}{subsection.3.1.2}}
\newlabel{sec:wordNet}{{3.1.2}{13}{WordNet}{subsection.3.1.2}{}}
\citation{Voorhees:1993:UWD:160688.160715}
\citation{Voorhees:1993:UWD:160688.160715}
\citation{Voorhees:1993:UWD:160688.160715}
\@writefile{toc}{\contentsline {section}{\numberline {3.2}Medidas de similaridade}{14}{section.3.2}}
\newlabel{sec:medidasSimilaridade}{{3.2}{14}{Medidas de similaridade}{section.3.2}{}}
\acronymused{PLN}
\newlabel{eq:formulaJaccard}{{\rm  3.1}{14}{Medidas de similaridade}{equation.3.2.1}{}}
\newlabel{eq:formulaJaccard2}{{\rm  3.2}{14}{Medidas de similaridade}{equation.3.2.2}{}}
\@writefile{lof}{\contentsline {figure}{\numberline {3.1}{\ignorespaces Hierarquia "IS-A" relacionando oito diferentes significados para o substantivo board \cite  {Voorhees:1993:UWD:160688.160715}}}{15}{figure.3.1}}
\newlabel{fig:wordnet}{{3.1}{15}{Hierarquia "IS-A" relacionando oito diferentes significados para o substantivo board \cite {Voorhees:1993:UWD:160688.160715}}{figure.3.1}{}}
\@setckpt{chapters/pln/main}{
\setcounter{page}{16}
\setcounter{equation}{2}
\setcounter{enumi}{0}
\setcounter{enumii}{0}
\setcounter{enumiii}{0}
\setcounter{enumiv}{0}
\setcounter{footnote}{3}
\setcounter{mpfootnote}{0}
\setcounter{part}{0}
\setcounter{chapter}{3}
\setcounter{section}{2}
\setcounter{subsection}{0}
\setcounter{subsubsection}{0}
\setcounter{paragraph}{0}
\setcounter{subparagraph}{0}
\setcounter{figure}{1}
\setcounter{table}{0}
\setcounter{parentequation}{0}
\setcounter{@pps}{0}
\setcounter{@ppsavesec}{0}
\setcounter{@ppsaveapp}{0}
\setcounter{lstnumber}{22}
\setcounter{Def}{0}
\setcounter{Axi}{0}
\setcounter{Conj}{0}
\setcounter{Lem}{0}
\setcounter{Theo}{0}
\setcounter{Prop}{0}
\setcounter{Cor}{0}
\setcounter{NAT@ctr}{0}
\setcounter{Item}{0}
\setcounter{Hfootnote}{3}
\setcounter{bookmark@seq@number}{13}
\setcounter{lstlisting}{0}
\setcounter{section@level}{0}
}
