\relax 
\providecommand\hyper@newdestlabel[2]{}
\@writefile{toc}{\contentsline {chapter}{\numberline {6}Avalia\IeC {\c c}\IeC {\~a}o}{31}{chapter.6}}
\@writefile{lof}{\addvspace {10\p@ }}
\@writefile{lot}{\addvspace {10\p@ }}
\newlabel{cap:avaliacao}{{6}{31}{Avaliação}{chapter.6}{}}
\@writefile{toc}{\contentsline {section}{\numberline {6.1}Performance com e sem pr\IeC {\'e}-processamento}{31}{section.6.1}}
\@writefile{lot}{\contentsline {table}{\numberline {6.1}{\ignorespaces Tempo gasto de acordo com a quantidade de Servi\IeC {\c c}os pesquisados }}{31}{table.6.1}}
\newlabel{table:buscaServicos}{{6.1}{31}{Tempo gasto de acordo com a quantidade de Serviços pesquisados}{table.6.1}{}}
\@writefile{lof}{\contentsline {figure}{\numberline {6.1}{\ignorespaces Gr\IeC {\'a}fico que representa o tempo de execu\IeC {\c c}\IeC {\~a}o em rela\IeC {\c c}\IeC {\~a}o a quantidade de Servi\IeC {\c c}os}}{32}{figure.6.1}}
\newlabel{fig:grafico}{{6.1}{32}{Gráfico que representa o tempo de execução em relação a quantidade de Serviços}{figure.6.1}{}}
\@writefile{toc}{\contentsline {section}{\numberline {6.2}Avalia\IeC {\c c}\IeC {\~a}o de usu\IeC {\'a}rios}{32}{section.6.2}}
\newlabel{sec:avaliacaoUsuario}{{6.2}{32}{Avaliação de usuários}{section.6.2}{}}
\@writefile{lot}{\contentsline {table}{\numberline {6.2}{\ignorespaces Avalia\IeC {\c c}\IeC {\~a}o dos usu\IeC {\'a}rios que utilizaram a ferramenta \emph  {NLP Discovery} }}{33}{table.6.2}}
\newlabel{table:avaliacaoNLP}{{6.2}{33}{Avaliação dos usuários que utilizaram a ferramenta \emph {NLP Discovery}}{table.6.2}{}}
\@setckpt{chapters/avaliacao/main}{
\setcounter{page}{34}
\setcounter{equation}{0}
\setcounter{enumi}{0}
\setcounter{enumii}{0}
\setcounter{enumiii}{0}
\setcounter{enumiv}{0}
\setcounter{footnote}{0}
\setcounter{mpfootnote}{0}
\setcounter{part}{0}
\setcounter{chapter}{6}
\setcounter{section}{2}
\setcounter{subsection}{0}
\setcounter{subsubsection}{0}
\setcounter{paragraph}{0}
\setcounter{subparagraph}{0}
\setcounter{figure}{1}
\setcounter{table}{2}
\setcounter{parentequation}{0}
\setcounter{@pps}{0}
\setcounter{@ppsavesec}{0}
\setcounter{@ppsaveapp}{0}
\setcounter{lstnumber}{53}
\setcounter{Def}{0}
\setcounter{Axi}{0}
\setcounter{Conj}{0}
\setcounter{Lem}{0}
\setcounter{Theo}{0}
\setcounter{Prop}{0}
\setcounter{Cor}{0}
\setcounter{NAT@ctr}{0}
\setcounter{Item}{0}
\setcounter{Hfootnote}{9}
\setcounter{bookmark@seq@number}{27}
\setcounter{lstlisting}{0}
\setcounter{section@level}{0}
}
