\relax 
\providecommand\hyper@newdestlabel[2]{}
\citation{sangers2013semantic}
\@writefile{toc}{\contentsline {chapter}{\numberline {5}Descoberta de Servi\IeC {\c c}os Web via Linguagem Natural}{19}{chapter.5}}
\@writefile{lof}{\addvspace {10\p@ }}
\@writefile{lot}{\addvspace {10\p@ }}
\newlabel{cap:proposta}{{5}{19}{Descoberta de Serviços Web via Linguagem Natural}{chapter.5}{}}
\@writefile{toc}{\contentsline {section}{\numberline {5.1}Arquitetura}{19}{section.5.1}}
\newlabel{sec:arquitetura}{{5.1}{19}{Arquitetura}{section.5.1}{}}
\@writefile{lof}{\contentsline {figure}{\numberline {5.1}{\ignorespaces Arquitetura do \emph  {NLP Discovery}}}{20}{figure.5.1}}
\newlabel{fig:arquitetura2}{{5.1}{20}{Arquitetura do \emph {NLP Discovery}}{figure.5.1}{}}
\@writefile{toc}{\contentsline {section}{\numberline {5.2}Ferramentas utilizadas}{21}{section.5.2}}
\newlabel{sec:ferramentasUtilizadas}{{5.2}{21}{Ferramentas utilizadas}{section.5.2}{}}
\undonewlabel{acro:RDF}
\newlabel{acro:RDF}{{5.2}{21}{Ferramentas utilizadas}{section*.17}{}}
\acronymused{RDF}
\undonewlabel{acro:JAWS}
\newlabel{acro:JAWS}{{5.2}{21}{Ferramentas utilizadas}{section*.18}{}}
\acronymused{JAWS}
\acronymused{JAWS}
\acronymused{OWL-S}
\@writefile{toc}{\contentsline {section}{\numberline {5.3}Implementa\IeC {\c c}\IeC {\~a}o}{21}{section.5.3}}
\newlabel{sec:implementacao}{{5.3}{21}{Implementação}{section.5.3}{}}
\@writefile{toc}{\contentsline {subsection}{\numberline {5.3.1}Semantic Reader}{21}{subsection.5.3.1}}
\acronymused{OWL-S}
\acronymused{OWL}
\@writefile{toc}{\contentsline {subsection}{\numberline {5.3.2}Disambiguator}{22}{subsection.5.3.2}}
\acronymused{JAWS}
\@writefile{lof}{\contentsline {figure}{\numberline {5.2}{\ignorespaces Dados extra\IeC {\'\i }dos da descri\IeC {\c c}\IeC {\~a}o do servi\IeC {\c c}o.}}{23}{figure.5.2}}
\newlabel{fig:owls-parser}{{5.2}{23}{Dados extraídos da descrição do serviço}{figure.5.2}{}}
\newlabel{cod:lesk}{{5.1}{23}{Algoritmo de Lesk em Java}{lstlisting.5.1}{}}
\@writefile{lol}{\contentsline {lstlisting}{\numberline {5.1}Algoritmo de Lesk em Java}{23}{lstlisting.5.1}}
\@writefile{toc}{\contentsline {subsection}{\numberline {5.3.3}Matching}{25}{subsection.5.3.3}}
\newlabel{eq:formula1}{{\rm  5.1}{26}{Matching}{equation.5.3.1}{}}
\newlabel{eq:formula2}{{\rm  5.2}{26}{Matching}{equation.5.3.2}{}}
\@writefile{toc}{\contentsline {subsection}{\numberline {5.3.4}Web Service Discovery}{26}{subsection.5.3.4}}
\@writefile{toc}{\contentsline {section}{\numberline {5.4}Interface}{26}{section.5.4}}
\@writefile{lof}{\contentsline {figure}{\numberline {5.3}{\ignorespaces Vers\IeC {\~a}o para desktop do \emph  {NLP Discovery}}}{27}{figure.5.3}}
\newlabel{fig:desktop}{{5.3}{27}{Versão para desktop do \emph {NLP Discovery}}{figure.5.3}{}}
\@writefile{toc}{\contentsline {section}{\numberline {5.5}Execu\IeC {\c c}\IeC {\~a}o}{27}{section.5.5}}
\newlabel{sec:execucao}{{5.5}{27}{Execução}{section.5.5}{}}
\acronymused{OWL-S}
\@writefile{lof}{\contentsline {figure}{\numberline {5.4}{\ignorespaces Vers\IeC {\~a}o mobile do \emph  {NLP Discovery}}}{28}{figure.5.4}}
\newlabel{fig:mobile}{{5.4}{28}{Versão mobile do \emph {NLP Discovery}}{figure.5.4}{}}
\@writefile{lof}{\contentsline {figure}{\numberline {5.5}{\ignorespaces Fluxo de execu\IeC {\c c}\IeC {\~a}o do \emph  {NLP Discovery}}}{29}{figure.5.5}}
\newlabel{fig:fluxo}{{5.5}{29}{Fluxo de execução do \emph {NLP Discovery}}{figure.5.5}{}}
\@setckpt{chapters/proposta/main}{
\setcounter{page}{30}
\setcounter{equation}{2}
\setcounter{enumi}{0}
\setcounter{enumii}{0}
\setcounter{enumiii}{0}
\setcounter{enumiv}{0}
\setcounter{footnote}{6}
\setcounter{mpfootnote}{0}
\setcounter{part}{0}
\setcounter{chapter}{5}
\setcounter{section}{5}
\setcounter{subsection}{0}
\setcounter{subsubsection}{0}
\setcounter{paragraph}{0}
\setcounter{subparagraph}{0}
\setcounter{figure}{5}
\setcounter{table}{0}
\setcounter{parentequation}{0}
\setcounter{@pps}{0}
\setcounter{@ppsavesec}{0}
\setcounter{@ppsaveapp}{0}
\setcounter{lstnumber}{53}
\setcounter{Def}{0}
\setcounter{Axi}{0}
\setcounter{Conj}{0}
\setcounter{Lem}{0}
\setcounter{Theo}{0}
\setcounter{Prop}{0}
\setcounter{Cor}{0}
\setcounter{NAT@ctr}{0}
\setcounter{Item}{0}
\setcounter{Hfootnote}{9}
\setcounter{bookmark@seq@number}{24}
\setcounter{lstlisting}{1}
\setcounter{section@level}{0}
}
