\relax 
\providecommand\hyper@newdestlabel[2]{}
\citation{sangers2013semantic}
\@writefile{toc}{\contentsline {chapter}{\numberline {4}Trabalhos relacionados}{17}{chapter.4}}
\@writefile{lof}{\addvspace {10\p@ }}
\@writefile{lot}{\addvspace {10\p@ }}
\newlabel{cap:trabalhos_relacionados}{{4}{17}{Trabalhos relacionados}{chapter.4}{}}
\undonewlabel{acro:WSMO}
\newlabel{acro:WSMO}{{4}{17}{Trabalhos relacionados}{section*.16}{}}
\acronymused{WSMO}
\acronymused{PLN}
\acronymused{PLN}
\acronymused{PLN}
\citation{monografiaBatore}
\citation{monografiaBatore}
\acronymused{OWL-S}
\acronymused{WSMO}
\acronymused{PLN}
\@setckpt{chapters/trabalhos_relacionados/main}{
\setcounter{page}{19}
\setcounter{equation}{0}
\setcounter{enumi}{0}
\setcounter{enumii}{0}
\setcounter{enumiii}{0}
\setcounter{enumiv}{0}
\setcounter{footnote}{0}
\setcounter{mpfootnote}{0}
\setcounter{part}{0}
\setcounter{chapter}{4}
\setcounter{section}{0}
\setcounter{subsection}{0}
\setcounter{subsubsection}{0}
\setcounter{paragraph}{0}
\setcounter{subparagraph}{0}
\setcounter{figure}{0}
\setcounter{table}{0}
\setcounter{parentequation}{0}
\setcounter{@pps}{0}
\setcounter{@ppsavesec}{0}
\setcounter{@ppsaveapp}{0}
\setcounter{lstnumber}{22}
\setcounter{Def}{0}
\setcounter{Axi}{0}
\setcounter{Conj}{0}
\setcounter{Lem}{0}
\setcounter{Theo}{0}
\setcounter{Prop}{0}
\setcounter{Cor}{0}
\setcounter{NAT@ctr}{0}
\setcounter{Item}{0}
\setcounter{Hfootnote}{3}
\setcounter{bookmark@seq@number}{14}
\setcounter{lstlisting}{0}
\setcounter{section@level}{0}
}
